<svg width="41" height="261" viewBox="0 0 41 261" fill="none" xmlns="http://www.w3.org/2000/svg">
<path d="M0.292892 252.293C-0.0976295 252.683 -0.0976295 253.317 0.292892 253.707L6.65685 260.071C7.04738 260.462 7.68054 260.462 8.07107 260.071C8.46159 259.681 8.46159 259.047 8.07107 258.657L2.41422 253L8.07107 247.343C8.46159 246.953 8.46159 246.319 8.07107 245.929C7.68054 245.538 7.04738 245.538 6.65685 245.929L0.292892 252.293ZM41 252H1V254H41V252Z" fill="black"/>
<line x1="40" y1="252" x2="40" y2="2" stroke="black" stroke-width="2"/>
<line x1="1" y1="1" x2="41" y2="1" stroke="black" stroke-width="2"/>
</svg>
