<svg width="708" height="1116" viewBox="0 0 708 1116" version="1.1" xmlns="http://www.w3.org/2000/svg" xmlns:xlink="http://www.w3.org/1999/xlink" xml:space="preserve" style="fill-rule:evenodd;clip-rule:evenodd;">
    <rect x="99" y="0" width="297" height="139" style="fill:rgb(0,0,255);"/>
    <rect x="118.5" y="20.5" width="292" height="132" style="fill:white;stroke:black;stroke-width:3px;"/>
    <g transform="matrix(1,0,0,1,-3.605,-0.144739)">
        <text x="183.906px" y="104px" style="font-family:'Theinhardt-Regular', 'Theinhardt', sans-serif;font-size:15px;">Day–to–Day business ops</text>
    </g>
    <g transform="matrix(1,0,0,1,2.675,-1.86526)">
        <text x="153.75px" y="83.264px" style="font-family:'Theinhardt-Medium', 'Theinhardt', sans-serif;font-weight:500;font-size:22px;">CEO + Business Roles</text>
    </g>
    <rect x="0" y="313" width="297" height="139" style="fill:rgb(255,214,0);fill-opacity:0.15;"/>
    <rect x="19.5" y="333.5" width="292" height="132" style="fill:white;stroke:black;stroke-width:3px;"/>
    <rect x="0" y="571" width="297" height="139" style="fill:rgb(255,214,0);fill-opacity:0.15;"/>
    <rect x="19.5" y="591.5" width="292" height="132" style="fill:white;stroke:black;stroke-width:3px;"/>
    <rect x="0" y="823" width="297" height="139" style="fill:rgb(0,255,25);fill-opacity:0.15;"/>
    <rect x="19.5" y="843.5" width="292" height="132" style="fill:white;stroke:black;stroke-width:3px;"/>
    <rect x="395" y="452" width="297" height="139" style="fill:rgb(255,214,0);fill-opacity:0.15;"/>
    <rect x="414.5" y="472.5" width="292" height="132" style="fill:white;stroke:black;stroke-width:3px;"/>
    <g transform="matrix(1,0,0,1,-71.366,311.849)">
        <text x="153.75px" y="83.264px" style="font-family:'Theinhardt-Medium', 'Theinhardt', sans-serif;font-weight:500;font-size:22px;">Product Manager</text>
    </g>
    <g transform="matrix(1,0,0,1,323.634,451.003)">
        <text x="153.75px" y="83.264px" style="font-family:'Theinhardt-Medium', 'Theinhardt', sans-serif;font-weight:500;font-size:22px;">Analyst/Research</text>
    </g>
    <g transform="matrix(1,0,0,1,-60.861,568.454)">
        <text x="153.75px" y="83.264px" style="font-family:'Theinhardt-Medium', 'Theinhardt', sans-serif;font-weight:500;font-size:22px;">Product Owner</text>
    </g>
    <rect x="395" y="710" width="297" height="139" style="fill:rgb(0,255,25);fill-opacity:0.15;"/>
    <rect x="414.5" y="730.5" width="292" height="132" style="fill:white;stroke:black;stroke-width:3px;"/>
    <rect x="395" y="962" width="297" height="139" style="fill:rgb(0,255,25);fill-opacity:0.15;"/>
    <rect x="414.5" y="982.5" width="292" height="132" style="fill:white;stroke:black;stroke-width:3px;"/>
    <path d="M148.293,313.707C148.683,314.098 149.317,314.098 149.707,313.707L156.071,307.343C156.462,306.953 156.462,306.319 156.071,305.929C155.681,305.538 155.047,305.538 154.657,305.929L149,311.586L143.343,305.929C142.953,305.538 142.319,305.538 141.929,305.929C141.538,306.319 141.538,306.953 141.929,307.343L148.293,313.707ZM148,278L148,313L150,313L150,278L148,278Z" style="fill-rule:nonzero;"/>
    <path d="M148.293,590.707C148.683,591.098 149.317,591.098 149.707,590.707L156.071,584.343C156.462,583.953 156.462,583.319 156.071,582.929C155.681,582.538 155.047,582.538 154.657,582.929L149,588.586L143.343,582.929C142.953,582.538 142.319,582.538 141.929,582.929C141.538,583.319 141.538,583.953 141.929,584.343L148.293,590.707ZM148,467L148,590L150,590L150,467L148,467Z" style="fill-rule:nonzero;"/>
    <path d="M148.293,842.707C148.683,843.098 149.317,843.098 149.707,842.707L156.071,836.343C156.462,835.953 156.462,835.319 156.071,834.929C155.681,834.538 155.047,834.538 154.657,834.929L149,840.586L143.343,834.929C142.953,834.538 142.319,834.538 141.929,834.929C141.538,835.319 141.538,835.953 141.929,836.343L148.293,842.707ZM148,725L148,842L150,842L150,725L148,725Z" style="fill-rule:nonzero;"/>
    <path d="M412.707,541.707C413.098,541.317 413.098,540.683 412.707,540.293L406.343,533.929C405.953,533.538 405.319,533.538 404.929,533.929C404.538,534.319 404.538,534.953 404.929,535.343L410.586,541L404.929,546.657C404.538,547.047 404.538,547.681 404.929,548.071C405.319,548.462 405.953,548.462 406.343,548.071L412.707,541.707ZM360,542L412,542L412,540L360,540L360,542Z" style="fill-rule:nonzero;"/>
    <path d="M256,279L149,279" style="fill:none;fill-rule:nonzero;stroke:black;stroke-width:2px;"/>
    <path d="M360,403L311,403" style="fill:none;fill-rule:nonzero;stroke:black;stroke-width:2px;"/>
    <path d="M255,278L255,154" style="fill:none;fill-rule:nonzero;stroke:black;stroke-width:2px;"/>
    <path d="M361,542L361,402" style="fill:none;fill-rule:nonzero;stroke:black;stroke-width:2px;"/>
    <path d="M412.707,1051.71C413.098,1051.32 413.098,1050.68 412.707,1050.29L406.343,1043.93C405.953,1043.54 405.319,1043.54 404.929,1043.93C404.538,1044.32 404.538,1044.95 404.929,1045.34L410.586,1051L404.929,1056.66C404.538,1057.05 404.538,1057.68 404.929,1058.07C405.319,1058.46 405.953,1058.46 406.343,1058.07L412.707,1051.71ZM360,1052L412,1052L412,1050L360,1050L360,1052Z" style="fill-rule:nonzero;"/>
    <path d="M412.707,799.707C413.098,799.317 413.098,798.683 412.707,798.293L406.343,791.929C405.953,791.538 405.319,791.538 404.929,791.929C404.538,792.319 404.538,792.953 404.929,793.343L410.586,799L404.929,804.657C404.538,805.047 404.538,805.681 404.929,806.071C405.319,806.462 405.953,806.462 406.343,806.071L412.707,799.707ZM360,800L412,800L412,798L360,798L360,800Z" style="fill-rule:nonzero;"/>
    <path d="M360,913L311,913" style="fill:none;fill-rule:nonzero;stroke:black;stroke-width:2px;"/>
    <path d="M361,1052L361,912" style="fill:none;fill-rule:nonzero;stroke:black;stroke-width:2px;"/>
    <path d="M361,939L361,799" style="fill:none;fill-rule:nonzero;stroke:black;stroke-width:2px;"/>
    <g transform="matrix(1,0,0,1,-73.6585,314.667)">
        <text x="183.906px" y="104px" style="font-family:'Theinhardt-Regular', 'Theinhardt', sans-serif;font-size:15px;">Product Direction</text>
    </g>
    <g transform="matrix(1,0,0,1,321.341,453.82)">
        <text x="183.906px" y="104px" style="font-family:'Theinhardt-Regular', 'Theinhardt', sans-serif;font-size:15px;">Insights generation</text>
    </g>
    <g transform="matrix(1,0,0,1,-125.799,571.272)">
        <text x="183.906px" y="104px" style="font-family:'Theinhardt-Regular', 'Theinhardt', sans-serif;font-size:15px;">Backlog creation and prioritization</text>
    </g>
    <g transform="matrix(1,0,0,1,391.548,707.586)">
        <text x="153.75px" y="83.264px" style="font-family:'Theinhardt-Medium', 'Theinhardt', sans-serif;font-weight:500;font-size:22px;">UX</text>
    </g>
    <g transform="matrix(1,0,0,1,-67.747,820.586)">
        <text x="153.75px" y="83.264px" style="font-family:'Theinhardt-Medium', 'Theinhardt', sans-serif;font-weight:500;font-size:22px;">Project Manager</text>
    </g>
    <g transform="matrix(1,0,0,1,384.75,959.586)">
        <text x="153.75px" y="83.264px" style="font-family:'Theinhardt-Medium', 'Theinhardt', sans-serif;font-weight:500;font-size:22px;">Tech</text>
    </g>
    <g transform="matrix(1,0,0,1,272.862,710.404)">
        <text x="183.906px" y="104px" style="font-family:'Theinhardt-Regular', 'Theinhardt', sans-serif;font-size:15px;">Customer Journeys and personas</text>
    </g>
    <g transform="matrix(1,0,0,1,-90.0835,823.404)">
        <text x="183.906px" y="104px" style="font-family:'Theinhardt-Regular', 'Theinhardt', sans-serif;font-size:15px;">Timelines and planning</text>
    </g>
    <g transform="matrix(1,0,0,1,284.576,962.404)">
        <text x="183.906px" y="104px" style="font-family:'Theinhardt-Regular', 'Theinhardt', sans-serif;font-size:15px;">Development, DevOps &amp; UAC</text>
    </g>
</svg>
